<?xml version="1.0" standalone="no"?>
<!DOCTYPE svg PUBLIC "-//W3C//DTD SVG 20010904//EN"
 "http://www.w3.org/TR/2001/REC-SVG-20010904/DTD/svg10.dtd">
<svg version="1.0" xmlns="http://www.w3.org/2000/svg"
 width="393.000000pt" height="364.000000pt" viewBox="0 0 393.000000 364.000000"
 preserveAspectRatio="xMidYMid meet">
<metadata>
Created by potrace 1.16, written by Peter Selinger 2001-2019
</metadata>
<g transform="translate(0.000000,364.000000) scale(0.100000,-0.100000)"
fill="#000000" stroke="none">
<path d="M640 3628 c-607 -13 -687 -25 -180 -27 l425 -1 0 -203 0 -204 -53
-104 c-55 -111 -63 -143 -82 -329 -5 -58 -28 -185 -49 -282 -96 -426 -94 -566
7 -667 58 -58 142 -101 196 -101 57 1 105 25 222 113 99 75 157 141 171 195 8
34 -3 193 -22 314 -20 132 -11 196 39 261 28 36 31 47 23 68 -5 13 -13 116
-17 229 -4 113 -11 215 -17 228 -8 20 9 60 106 253 l116 229 342 0 343 0 5
-22 c15 -69 26 -163 40 -333 9 -104 23 -235 31 -290 22 -140 22 -305 0 -378
-9 -31 -41 -93 -71 -137 -95 -139 -99 -151 -99 -270 0 -58 2 -162 5 -231 l4
-126 -50 -73 c-41 -60 -50 -80 -50 -116 l0 -44 -55 0 c-464 2 -856 -12 -876
-32 -3 -3 -12 -93 -20 -199 -30 -405 -64 -696 -114 -975 -27 -147 -53 -273
-66 -316 -5 -17 -35 -18 -432 -19 -251 -1 -406 -5 -377 -9 172 -28 2324 -40
3245 -19 543 12 700 26 313 28 l-252 1 -5 32 c-30 198 -118 872 -127 968 -6
69 -12 212 -13 318 l-1 192 -35 12 c-22 8 -120 13 -265 14 -126 2 -247 3 -267
3 l-38 1 0 89 c0 126 17 325 41 471 32 201 81 378 228 825 77 231 151 468 166
528 l28 107 401 1 c505 2 387 13 -299 28 -557 12 -1989 12 -2565 -1z m780 -53
c-5 -14 -48 -104 -95 -200 l-86 -174 -33 20 c-19 11 -67 26 -107 34 -41 9 -84
17 -96 20 -21 5 -23 11 -23 69 0 35 -7 100 -15 143 -8 43 -15 81 -15 85 0 18
81 26 272 27 l208 1 -10 -25z m1590 7 c0 -46 -47 -178 -105 -293 -77 -152
-101 -222 -119 -337 -11 -72 -23 -104 -65 -180 -45 -82 -51 -100 -51 -152 0
-32 -7 -94 -15 -137 -8 -43 -15 -100 -15 -127 l0 -49 -21 19 c-12 10 -33 39
-47 64 -55 95 -95 130 -151 130 -27 0 -32 3 -26 18 31 80 56 171 66 247 16
119 6 374 -24 623 l-23 192 298 0 c278 0 298 -1 298 -18z m-532 -1214 c16 -16
15 -80 -1 -102 -12 -16 -15 -15 -49 11 -21 15 -37 32 -38 37 0 14 51 66 65 66
6 0 16 -5 23 -12z m-18 -224 c-8 -48 -22 -68 -57 -79 -22 -6 -23 -4 -23 59 l0
66 43 0 44 0 -7 -46z m-91 -654 l766 -1 -27 -24 c-39 -34 -124 -49 -233 -40
-144 12 -280 11 -431 -2 -244 -22 -956 -14 -1222 13 -52 5 -60 9 -51 20 28 34
99 44 268 39 90 -3 509 -5 930 -5z m761 -179 c0 -73 25 -257 70 -506 64 -361
88 -580 75 -700 -7 -59 -10 -65 -30 -65 -33 0 -49 24 -42 65 3 20 1 49 -5 66
l-11 31 -921 -5 c-889 -5 -1156 -13 -1181 -38 -5 -5 -15 -29 -20 -52 -9 -33
-16 -43 -35 -45 l-23 -4 6 114 c7 134 25 260 72 498 63 321 67 358 61 461 -7
103 0 138 36 177 27 28 54 28 72 -1 21 -32 5 -345 -30 -577 -33 -223 -53 -413
-45 -422 25 -28 1037 -47 1511 -29 162 6 335 14 384 18 l89 6 -6 136 c-7 150
-17 195 -54 260 -22 37 -27 41 -39 29 -26 -25 -32 -70 -17 -133 7 -33 16 -88
19 -122 l7 -61 -54 -16 c-139 -42 -160 -42 -1086 -38 l-583 2 1 398 c0 268 4
412 12 442 l12 45 105 9 c65 5 332 4 700 -3 327 -7 636 -9 687 -5 l91 7 11
-54 c5 -30 13 -85 16 -124 11 -121 26 -188 53 -238 24 -44 27 -47 39 -31 21
29 15 139 -17 294 -30 145 -35 195 -24 238 5 18 13 22 50 22 l44 0 0 -49z
m-39 -1219 c-5 -9 -19 -26 -31 -37 -21 -19 -37 -20 -459 -20 -240 0 -583 -4
-762 -9 -250 -7 -348 -6 -422 4 -98 13 -109 18 -121 58 l-7 22 906 0 c862 0
905 -1 896 -18z"/>
</g>
</svg>
