<?xml version="1.0" encoding="UTF-8" standalone="no"?>
<!-- Created with Inkscape (http://www.inkscape.org/) -->

<svg
   version="1.1"
   id="svg2"
   width="300"
   height="80"
   viewBox="0 0 300 80"
   sodipodi:docname="navlog-alt.svg"
   xml:space="preserve"
   inkscape:version="1.2.1 (9c6d41e410, 2022-07-14)"
   inkscape:export-filename="../../tr/site_files/navlog-alt.png"
   inkscape:export-xdpi="300"
   inkscape:export-ydpi="300"
   xmlns:inkscape="http://www.inkscape.org/namespaces/inkscape"
   xmlns:sodipodi="http://sodipodi.sourceforge.net/DTD/sodipodi-0.dtd"
   xmlns="http://www.w3.org/2000/svg"
   xmlns:svg="http://www.w3.org/2000/svg"><defs
     id="defs6" /><sodipodi:namedview
     id="namedview4"
     pagecolor="#ffffff"
     bordercolor="#000000"
     borderopacity="0.25"
     inkscape:showpageshadow="2"
     inkscape:pageopacity="0.0"
     inkscape:pagecheckerboard="0"
     inkscape:deskcolor="#d1d1d1"
     showgrid="false"
     inkscape:zoom="3.9373992"
     inkscape:cx="79.875061"
     inkscape:cy="42.413784"
     inkscape:window-width="1600"
     inkscape:window-height="831"
     inkscape:window-x="0"
     inkscape:window-y="0"
     inkscape:window-maximized="1"
     inkscape:current-layer="g8" /><g
     inkscape:groupmode="layer"
     inkscape:label="Image"
     id="g8"><path
       d="M 12.520318,0.18376676 C -0.86637583,0.47045561 -2.6306761,0.7351014 8.5506238,0.77921972 l 9.3728882,0.0219789 V 5.2781341 9.7771275 l -1.168854,2.2935915 c -1.212962,2.447975 -1.389393,3.153708 -1.808416,7.255718 -0.110264,1.279126 -0.61751,4.079966 -1.08064,6.219193 -2.11717,9.394942 -2.073062,12.482487 0.154383,14.709917 1.279123,1.279126 3.131645,2.227447 4.322555,2.227447 1.257069,-0.02199 2.315653,-0.551351 4.895955,-2.492091 2.183331,-1.654038 3.462457,-3.10959 3.77121,-4.300495 0.176431,-0.749836 -0.06616,-4.256393 -0.485185,-6.92491 -0.441078,-2.91112 -0.242593,-4.322554 0.8601,-5.756062 0.617508,-0.793937 0.683669,-1.036525 0.507239,-1.499656 -0.110264,-0.286705 -0.2867,-2.558254 -0.374916,-5.050345 -0.08822,-2.492075 -0.242593,-4.741582 -0.374916,-5.02827 -0.17643,-0.441086 0.198485,-1.32323 2.33771,-5.5796209 l 2.558246,-5.05034545 h 7.54242 7.564472 l 0.110264,0.48518925 c 0.330807,1.5217134 0.5734,3.5947776 0.882155,7.3439371 0.198484,2.293592 0.507237,5.182652 0.683669,6.395619 0.485183,3.087543 0.485183,6.726423 0,8.336358 -0.198485,0.683674 -0.904209,2.051004 -1.565824,3.021367 -2.095115,3.065486 -2.183333,3.330132 -2.183333,5.954547 0,1.279127 0.0441,3.57272 0.110264,5.094448 l 0.08822,2.778782 -1.102692,1.609933 c -0.904209,1.323229 -1.102694,1.764301 -1.102694,2.558239 v 0.970377 h -1.212959 c -10.232988,-0.04411 -18.8781,0.264646 -19.319177,0.705718 -0.06616,0.0661 -0.264646,2.051004 -0.441078,4.388715 -0.661615,8.931811 -1.411445,15.349489 -2.514139,21.50252 -0.595453,3.241911 -1.168854,6.020693 -1.455554,6.969013 -0.110264,0.374909 -0.771886,0.396968 -9.5272655,0.419027 -5.5355174,0.02199 -8.95385693,0.110215 -8.3143032,0.198484 3.7932635,0.617513 51.2531587,0.882159 71.5647597,0.419012 11.975242,-0.264646 15.437699,-0.573394 6.902855,-0.617496 l -5.557571,-0.02199 -0.110264,-0.705718 c -0.661615,-4.366671 -2.602354,-19.230971 -2.800841,-21.348137 -0.132323,-1.521713 -0.264645,-4.67542 -0.286699,-7.01313 l -0.02207,-4.234333 -0.771885,-0.264646 c -0.485185,-0.176441 -2.646463,-0.286705 -5.844272,-0.308764 -2.778786,-0.04411 -5.447303,-0.0661 -5.888379,-0.0661 l -0.838047,-0.02199 v -1.9628 c 0,-2.778782 0.374916,-7.167497 0.904209,-10.387365 0.705721,-4.432816 1.786362,-8.336359 5.028278,-18.194431 C 64.258649,9.7111564 65.890634,4.4843858 66.221443,3.1611568 L 66.83895,0.80138764 75.682546,0.77940874 C 86.819751,0.73531002 84.217398,0.49272339 69.088451,0.16191614 56.804455,-0.10272974 25.223335,-0.10272974 12.520315,0.18405549 Z M 29.722324,1.3526136 C 29.61206,1.6613616 28.66374,3.6462213 27.627208,5.7633877 L 25.730576,9.6007518 25.0028,9.1596804 C 24.583778,8.9170943 23.525192,8.5862709 22.643035,8.4098459 21.73883,8.2113614 20.790511,8.0349363 20.525866,7.9687749 20.062736,7.8585592 20.018629,7.7261721 20.018629,6.4470614 c 0,-0.7718943 -0.154382,-2.205387 -0.330808,-3.1537066 -0.17643,-0.9483194 -0.330809,-1.7863591 -0.330809,-1.8745798 0,-0.3969686 1.786363,-0.57339388 5.998648,-0.59545294 l 4.587202,-0.0219789 z M 64.787953,1.1982797 c 0,1.0144809 -1.03653,3.9255848 -2.315654,6.4617791 -1.698146,3.3521912 -2.227439,4.8959642 -2.624407,7.4321582 -0.242593,1.587875 -0.507241,2.293591 -1.433503,3.969688 -0.992423,1.808418 -1.124746,2.205386 -1.124746,3.35219 0,0.705717 -0.154383,2.073064 -0.330807,3.021384 -0.176432,0.948303 -0.330809,2.205387 -0.330809,2.800841 v 1.080626 l -0.46313,-0.419012 c -0.264646,-0.220544 -0.727777,-0.8601 -1.036532,-1.41145 -1.212961,-2.095124 -2.095115,-2.867002 -3.330132,-2.867002 -0.595453,0 -0.705723,-0.0661 -0.573401,-0.396969 0.683671,-1.764315 1.235017,-3.771218 1.455556,-5.447299 C 53.03325,16.1508 52.812711,10.52706 52.151095,5.0356598 L 51.643857,0.80131096 h 6.572048 c 6.130972,0 6.572048,0.0219789 6.572048,0.39696874 z M 53.055305,27.971674 c 0.352859,0.35285 0.330805,1.764299 -0.02207,2.249489 -0.264646,0.352849 -0.330808,0.330807 -1.08064,-0.242603 -0.463131,-0.330807 -0.815991,-0.705717 -0.838046,-0.815981 0,-0.308763 1.124747,-1.455552 1.433499,-1.455552 0.132324,0 0.352863,0.110216 0.50724,0.264647 z m -0.396972,4.940049 c -0.176431,1.058599 -0.485185,1.499671 -1.257069,1.742256 -0.485184,0.132355 -0.507239,0.08824 -0.507239,-1.301169 v -1.455553 h 0.948316 0.97037 z m -2.006899,14.423229 16.893252,0.02214 -0.595455,0.529292 c -0.860099,0.749819 -2.734677,1.080627 -5.138549,0.882142 -3.175754,-0.264645 -6.175078,-0.242587 -9.50521,0.04411 -5.381142,0.485172 -21.083486,0.308748 -26.949812,-0.286706 -1.146799,-0.110215 -1.32323,-0.198484 -1.124746,-0.44107 0.617509,-0.749835 2.183331,-0.970379 5.910435,-0.860099 1.984846,0.0661 11.225409,0.110216 20.510085,0.110216 z m 16.782982,3.947644 c 0,1.609934 0.551347,5.667841 1.543771,11.159241 1.411446,7.96145 1.940739,12.791237 1.654039,15.437711 -0.154383,1.30117 -0.220541,1.433493 -0.661616,1.433493 -0.727775,0 -1.080639,-0.529291 -0.926263,-1.433493 0.06616,-0.441086 0.02207,-1.080642 -0.110262,-1.455567 L 68.691491,75.740324 48.37989,75.850539 c -19.605875,0.110215 -25.494256,0.286706 -26.045603,0.838039 -0.110264,0.110216 -0.330806,0.639572 -0.441077,1.146804 -0.198484,0.727776 -0.352862,0.948319 -0.771885,0.992422 l -0.507238,0.08824 0.132323,-2.514136 c 0.154381,-2.955223 0.551346,-5.734005 1.587876,-10.982818 1.389394,-7.079292 1.477608,-7.895287 1.345285,-10.166837 -0.154382,-2.271548 0,-3.043426 0.793939,-3.903525 0.595455,-0.617512 1.190908,-0.617512 1.587878,0.02199 0.46313,0.705733 0.110264,7.608583 -0.661617,12.725073 -0.727777,4.918024 -1.168854,9.108254 -0.992423,9.306739 0.551347,0.617496 22.869849,1.036523 33.323375,0.639554 3.572726,-0.132354 7.388042,-0.308748 8.46868,-0.396967 l 1.962793,-0.132356 -0.132322,-2.999324 c -0.154383,-3.308073 -0.374915,-4.300495 -1.190909,-5.734003 -0.485184,-0.815998 -0.595454,-0.904202 -0.8601,-0.639556 -0.573401,0.551335 -0.705722,1.543773 -0.374914,2.933163 0.154382,0.727776 0.352861,1.940741 0.419022,2.69056 l 0.154382,1.345288 -1.190909,0.352867 c -3.065486,0.926261 -3.528616,0.926261 -23.950486,0.83804 l -12.857398,-0.04411 0.02207,-8.777431 c 0,-5.910444 0.08822,-9.086193 0.264648,-9.747807 l 0.264645,-0.992423 2.315654,-0.198484 c 1.433502,-0.110216 7.321881,-0.08824 15.4377,0.0661 7.211611,0.154333 14.026252,0.198485 15.150998,0.110216 l 2.006902,-0.154333 0.242593,1.190905 c 0.110263,0.661615 0.286698,1.87458 0.35286,2.734678 0.242592,2.668518 0.573401,4.146113 1.168854,5.248814 0.529293,0.970363 0.595454,1.036524 0.860101,0.683674 0.463131,-0.639571 0.330809,-3.065486 -0.374917,-6.483838 -0.661614,-3.197809 -0.771884,-4.30051 -0.529291,-5.248814 0.110264,-0.396968 0.286698,-0.485189 1.102693,-0.485189 h 0.970365 z m -0.860101,26.883642 c -0.110264,0.198484 -0.419021,0.57341 -0.683669,0.815996 -0.46313,0.419029 -0.815992,0.441071 -10.12272,0.441071 -5.292924,0 -12.857396,0.08824 -16.805036,0.198484 -5.513464,0.154334 -7.674742,0.132356 -9.306727,-0.08824 -2.161277,-0.286705 -2.40387,-0.396969 -2.668516,-1.279127 l -0.154383,-0.485186 h 19.980794 c 19.010422,0 19.958738,0.02197 19.760252,0.396968 z"
       id="path192"
       style="fill:#2a9fd6;stroke:none;stroke-width:0.0220539;fill-opacity:1" /><text
       xml:space="preserve"
       style="font-size:35.6174px;font-family:'Special Elite';-inkscape-font-specification:'Special Elite';letter-spacing:4px;fill:#2a9fd6;stroke-width:1.37435;fill-opacity:1"
       x="61.23312"
       y="26.462654"
       id="text312"><tspan
         sodipodi:role="line"
         id="tspan310"
         x="61.23312"
         y="26.462654"
         style="font-size:35.6174px;stroke-width:1.37435;fill:#2a9fd6;fill-opacity:1"> Anarşist</tspan><tspan
         sodipodi:role="line"
         x="61.23312"
         y="70.984406"
         id="tspan568"
         style="font-size:35.6174px;stroke-width:1.37435;fill:#2a9fd6;fill-opacity:1"> Kütüphane</tspan></text></g></svg>
